93.27,kkrieger 2022-09-13 16-26-05-18 fps.csv
173.09,kkrieger 2022-09-13 16-34-28-78 fps.csv
134.18,kkrieger 2022-09-13 16-36-18-79 fps.csv
96.09,kkrieger 2022-09-13 17-04-38-68 fps.csv
125.36,kkrieger 2022-09-13 17-07-17-82 fps.csv
140.09,kkrieger 2022-09-13 17-09-31-07 fps.csv
137.45,kkrieger 2022-09-13 17-10-50-91 fps.csv
90.33,kkrieger 2022-09-14 01-23-51-27 fps.csv
112.55,kkrieger 2022-09-14 01-50-58-21 fps.csv
128.27,kkrieger 2022-09-14 01-55-43-38 fps.csv
107.36,kkrieger 2022-09-14 01-57-53-46 fps.csv
104.18,kkrieger 2022-09-14 01-59-30-21 fps.csv
134.55,kkrieger 2022-09-14 02-00-38-56 fps.csv
125.64,kkrieger 2022-09-14 02-01-35-29 fps.csv
83.0,kkrieger 2022-09-14 02-06-46-40 fps.csv
125.42,kkrieger 2022-09-14 02-08-44-17 fps.csv
